…
    ## • Missing value column filter removed: <none> | Trained

    ## • Removing rows with NA values in: x3tgpatot x1txmtscor, ... | Trained

    ## • Correlation filter on: x1par1edu_Unit.non.response, ... | Trained

    ## • Zero variance filter removed: <none> | Trained

    ## • Centering and scaling for: x1txmtscor x1schooleng, ... | Trained

``` r
hs_rec%>%prep()%>%bake(train)
```

    ## # A tibble: 14,445 × 47
    ##    x1txmtscor x1schooleng x3tgpatot x1par1edu_Bachelor.s.degree
    ##         <dbl>       <dbl>     <dbl>                       <dbl>
    ##  1    -0.0424     -1.03         2.5                      -0.466
    ##  2     0.258      -0.291        2.5                      -0.466
    ##  3    -0.212       0.562        2                        -0.466
    ##  4    -2.24        0.151        2                        -0.466
    ##  5    -0.665       0.521        3                        -0.466
    ##  6     1.08        0.901        3                        -0.466
    ##  7     1.63        0.0176       3                         2.14 
    ##  8    -0.141       0.901        3.5                      -0.466
    ##  9    -0.341       0.562        3                        -0.466
    ## 10     0.366       0.449        3                        -0.466
    ## # ℹ 14,435 more rows
    ## # ℹ 43 more variables: x1par1edu_High.school.diploma.or.GED <dbl>,
    ## #   x1par1edu_Less.than.high.school <dbl>, x1par1edu_Master.s.degree <dbl>,
    ## #   x1par1edu_Ph.D.M.D.Law.other.high.lvl.prof.degree <dbl>,
    ## #   x1par1emp_P1.currently.working.PT...35.hrs.wk. <dbl>,
    ## #   x1par1emp_P1.has.never.worked.for.pay <dbl>,
    ## #   x1par1emp_P1.not.currently.working.for.pay <dbl>, …
…
