…
save(hs_enet_tune_fit,file="hs-enet-tune-fit.Rdata")
} else{
  load("hs-enet-tune-fit.Rdata")
}
```

Let’s take a look at the results to see which combination of penalty and
mixture seemed to work best.

``` r
hs_enet_tune_fit%>%collect_metrics()%>% filter(.metric=="rmse")%>%arrange(mean)
```

    ## # A tibble: 100 × 8
    ##          penalty mixture .metric .estimator  mean     n  std_err .config        
    ##            <dbl>   <dbl> <chr>   <chr>      <dbl> <int>    <dbl> <chr>          
    ##  1 0.00599         0.05  rmse    standard   0.654   100 0.000679 pre0_mod071_po…
    ##  2 0.000464        1     rmse    standard   0.654   100 0.000679 pre0_mod070_po…
    ##  3 0.000464        0.894 rmse    standard   0.654   100 0.000679 pre0_mod069_po…
    ##  4 0.000464        0.789 rmse    standard   0.654   100 0.000679 pre0_mod068_po…
    ##  5 0.00599         0.156 rmse    standard   0.654   100 0.000679 pre0_mod072_po…
    ##  6 0.00599         0.367 rmse    standard   0.654   100 0.000680 pre0_mod074_po…
    ##  7 0.000464        0.683 rmse    standard   0.654   100 0.000679 pre0_mod067_po…
    ##  8 0.000464        0.578 rmse    standard   0.654   100 0.000679 pre0_mod066_po…
    ##  9 0.0000000001    0.05  rmse    standard   0.654   100 0.000679 pre0_mod001_po…
    ## 10 0.00000000129   0.05  rmse    standard   0.654   100 0.000679 pre0_mod011_po…
    ## # ℹ 90 more rows
…
    ## 
    ## Attaching package: 'Matrix'

    ## The following objects are masked from 'package:tidyr':
    ## 
    ##     expand, pack, unpack

    ## Loaded glmnet 4.1-10

    ## # A tibble: 49 × 3
    ##    term                                                    estimate penalty
    ##    <chr>                                                      <dbl>   <dbl>
    ##  1 x1txmtscor                                                0.333  0.00599
    ##  2 x1schooleng                                               0.171  0.00599
    ##  3 x1stuedexpct_High.school.diploma.or.GED                  -0.0875 0.00599
    ##  4 x1famincome_Family.income.less.than.or.equal.to..15.000  -0.0782 0.00599
    ##  5 x1control_Public                                         -0.0745 0.00599
    ##  6 x1famincome_Family.income....15.000.and.....35.000       -0.0639 0.00599
    ##  7 x1locale_Rural                                            0.0635 0.00599
    ##  8 x1hhnumber_X4.Household.members                           0.0590 0.00599
    ##  9 x1locale_Town                                             0.0456 0.00599
    ## 10 x1hhnumber_X5.Household.members                           0.0417 0.00599
    ## # ℹ 39 more rows
…
